<?xml version="1.0" encoding="utf-8"?>
<!-- Generator: Adobe Illustrator 15.0.0, SVG Export Plug-In . SVG Version: 6.00 Build 0)  -->
<!DOCTYPE svg PUBLIC "-//W3C//DTD SVG 1.1//EN" "http://www.w3.org/Graphics/SVG/1.1/DTD/svg11.dtd">
<svg version="1.1" id="flickr-icon" xmlns="http://www.w3.org/2000/svg" xmlns:xlink="http://www.w3.org/1999/xlink" x="0px"
	 y="0px" width="30px" height="15px" viewBox="381 298.5 30 15" enable-background="new 381 298.5 30 15" xml:space="preserve">
<path fill="#5292BC" d="M381,306.001c0-3.625,2.938-6.563,6.562-6.563c3.625,0,6.562,2.938,6.562,6.563
	c0,3.624-2.938,6.562-6.562,6.562C383.938,312.563,381,309.625,381,306.001z"/>
<circle fill="#003366" cx="404.438" cy="306" r="6.563"/>
</svg>
